<?xml version="1.0" encoding="utf-8"?>
<!-- Generator: Adobe Illustrator 18.1.1, SVG Export Plug-In . SVG Version: 6.00 Build 0)  -->
<svg version="1.1" id="Capa_3" xmlns="http://www.w3.org/2000/svg" xmlns:xlink="http://www.w3.org/1999/xlink" x="0px" y="0px"
	 viewBox="0 0 200 200" enable-background="new 0 0 200 200" xml:space="preserve">
<g>
	<path d="M100-0.3c-6.4,0-12.5,2.5-17,7.1l0,0L8.4,81.5c-4.5,4.5-7,10.6-7.1,17h0c0,0,0,0,0,0s0,0,0,0c0,6.4,2.5,12.5,7.1,17l0,0
		c4.5,4.5,10.6,7,17,7h53.2l22.2-22.2H25.4c-0.6,0-1.1-0.3-1.3-0.5c-0.2-0.2-0.5-0.7-0.5-1.3c0-0.3,0.1-0.8,0.5-1.3l74.7-74.7
		c0.4-0.4,0.9-0.5,1.3-0.5c0.3,0,0.8,0.1,1.3,0.5l74.7,74.7c0.4,0.4,0.5,0.9,0.5,1.3c0,1-0.8,1.8-1.9,1.8h-51.4L101,122.5l73.6,0
		c6.6,0,12.6-2.7,17-7l0,0c4.5-4.5,7.1-10.6,7.1-17c0,0,0,0,0,0c0,0,0,0,0,0l0,0c0-6.4-2.5-12.5-7.1-17L117,6.9l0.1,0
		C112.5,2.3,106.5-0.3,100-0.3C100-0.3,100-0.2,100-0.3C100-0.2,100-0.3,100-0.3z"/>
	<path d="M155.6,176.1v-53.5h-22.2v53.6c0,0.6-0.3,1-0.5,1.3c-0.2,0.2-0.7,0.5-1.3,0.5h-4.9H73.3h-4.9c-0.6,0-1-0.3-1.3-0.5
		c-0.2-0.3-0.5-0.7-0.5-1.3v-53.6H44.4l0,53.5h-0.1c0,6.4,2.5,12.5,7.1,17c0,0,0,0,0,0c0,0,0,0,0,0c4.6,4.5,10.6,7.1,17,7.1v-0.1
		h4.8h53.4h4.8v0.1c6.4,0,12.5-2.5,17-7.1c0,0,0,0,0,0c0,0,0,0,0,0C153.2,188.6,155.7,182.5,155.6,176.1L155.6,176.1z"/>
</g>
</svg>
