<?xml version="1.0" encoding="utf-8"?>
<!-- Generator: Adobe Illustrator 18.1.1, SVG Export Plug-In . SVG Version: 6.00 Build 0)  -->
<svg version="1.1" id="Capa_1" xmlns="http://www.w3.org/2000/svg" xmlns:xlink="http://www.w3.org/1999/xlink" x="0px" y="0px"
	 viewBox="0 0 139.7 39.5" enable-background="new 0 0 139.7 39.5" xml:space="preserve">
<g>
	<g>
		<polygon fill="#E02726" points="125.9,6.1 125.9,10.9 130.8,6.1 		"/>
		<path fill="#01AFEC" d="M135.6,13.7V23c0,1.2-1,2.2-2.2,2.2H122c-1.2,0-2.2-1-2.2-2.2l0-9.4l-4.2-3l0,12.4c0,3.5,2.9,6.4,6.4,6.4
			h11.5c3.5,0,6.4-2.9,6.4-6.4V10.7L135.6,13.7z M117.7,16.1c-0.4,0-0.7-0.3-0.7-0.7c0-0.4,0.3-0.7,0.7-0.7s0.7,0.3,0.7,0.7
			C118.4,15.7,118.1,16.1,117.7,16.1z M137.7,16.1c-0.4,0-0.7-0.3-0.7-0.7c0-0.4,0.3-0.8,0.7-0.8c0.4,0,0.7,0.3,0.7,0.8
			C138.5,15.7,138.2,16.1,137.7,16.1z M44.5,10.9H33c-3.5,0-6.4,2.9-6.4,6.4V23c0,3.5,2.9,6.4,6.4,6.4h13.7l-4.2-4.2H33
			c-1.2,0-2.2-1-2.2-2.2v-5.8c0-1.2,1-2.2,2.2-2.2h11.5c1.2,0,2.2,1,2.2,2.2v12.1l4.2,0.1V17.3C50.9,13.7,48,10.9,44.5,10.9z
			 M50,27.9c0,0.4-0.3,0.7-0.7,0.7c-0.4,0-0.7-0.3-0.7-0.7c0-0.4,0.3-0.7,0.7-0.7C49.6,27.1,50,27.5,50,27.9z M79.9,10.9h-5.8
			c-1.7,0-3.2,0.6-4.3,1.7c-1.1-1-2.6-1.7-4.3-1.7h-5.8c-3.5,0-6.4,2.9-6.4,6.4v12.2h4.2V17.3c0-1.2,1-2.2,2.2-2.2h5.8
			c1.2,0,2.2,1,2.2,2.2l0,12.2H72V17.3c0-1.2,1-2.2,2.2-2.2h5.8c1.2,0,2.2,1,2.2,2.2l0,12.2h4.2l0-12.2
			C86.3,13.7,83.5,10.9,79.9,10.9z M84.6,28.8c-0.4,0-0.7-0.3-0.7-0.7c0-0.4,0.3-0.7,0.7-0.7c0.4,0,0.7,0.3,0.7,0.7
			C85.3,28.4,85,28.8,84.6,28.8z M17.7,10.9l-13.6,0l4.2,4.2l9.4,0c1.2,0,2.2,1,2.2,2.2V23c0,1.2-1,2.2-2.2,2.2H6.3
			c-1.2,0-2.2-1-2.2-2.2V10.9v-8L-0.1,0V23c0,3.5,2.9,6.4,6.4,6.4h11.5c3.5,0,6.4-2.9,6.4-6.4v-5.8C24.1,13.7,21.3,10.9,17.7,10.9z
			 M2,5.2c-0.4,0-0.7-0.3-0.7-0.7c0-0.4,0.3-0.7,0.7-0.7s0.7,0.3,0.7,0.7C2.7,4.9,2.4,5.2,2,5.2z M106.7,10.9l-13.6,0l4.2,4.2l9.4,0
			c1.2,0,2.2,1,2.2,2.2V23c0,1.2-1,2.2-2.2,2.2H95.2c-1.2,0-2.2-1-2.2-2.2V10.9v-8L88.8,0V23c0,3.5,2.9,6.4,6.4,6.4h11.5
			c3.5,0,6.4-2.9,6.4-6.4v-5.8C113.1,13.7,110.2,10.9,106.7,10.9z M90.9,5.2c-0.4,0-0.7-0.3-0.7-0.7c0-0.4,0.3-0.7,0.7-0.7
			c0.4,0,0.7,0.3,0.7,0.7C91.7,4.9,91.3,5.2,90.9,5.2z"/>
		<path fill="#77777A" d="M81,36.4c0.2-0.1,0.3-0.1,0.5-0.3c0.2-0.2,0.3-0.6,0.3-0.9c0-0.4-0.1-0.7-0.4-1c-0.3-0.3-0.6-0.4-1.3-0.4
			h-1.7v5.7H80c0.3,0,0.5,0,0.7,0c0.9,0,1.3-0.8,1.3-1.6C82,37.1,81.7,36.6,81,36.4z M79.4,34.7H80c0.2,0,0.3,0,0.4,0.1
			c0.2,0.1,0.3,0.3,0.3,0.6c0,0.2-0.1,0.5-0.3,0.6c-0.1,0-0.2,0.1-0.4,0.1h-0.6V34.7z M80.6,38.4c-0.1,0.1-0.3,0.1-0.5,0.1h-0.7V37
			h0.6c0.2,0,0.3,0,0.4,0c0.2,0.1,0.4,0.4,0.4,0.7C80.9,38,80.8,38.2,80.6,38.4z M84.6,33.7h-1.1v5.7h2.7l0.2-0.9h-1.8V33.7z
			 M58.8,36.1c0,0.4,0,1.1,0.1,1.6c-0.1-0.4-0.3-1-0.6-1.6l-1-2.3h-1.1v5.7h1l0-2.4c0-0.5,0-1.1-0.1-1.6c0.1,0.4,0.4,1.2,0.7,1.9
			l0.9,2.2h1.1v-5.7h-1L58.8,36.1z M88.6,36.9h1.5V36h-1.5v-1.3h1.8l0.1-0.9h-2.9v5.7h3v-1h-1.9V36.9z M53.3,39.4h1.1v-5.7h-1.1
			V39.4z M71,37.4c0,0.3,0,0.4,0,0.5c0,0.4-0.3,0.7-0.8,0.7c-0.3,0-0.6-0.1-0.7-0.4c-0.1-0.1-0.1-0.3-0.1-0.7v-3.7h-1.1v4
			c0,0.5,0.1,0.8,0.2,1.1c0.3,0.5,0.9,0.8,1.6,0.8c1.1,0,1.6-0.6,1.7-1.1c0.1-0.2,0.1-0.4,0.1-0.9v-3.8h-1V37.4z M65,33.7l-0.7,2.8
			c-0.1,0.3-0.1,0.6-0.2,0.9c0-0.3-0.1-0.5-0.2-0.9l-0.7-2.8h-1.3l-0.5,5.7h1l0.2-3c0-0.4,0-0.7,0-1c0.1,0.3,0.1,0.7,0.2,1l0.7,3
			h0.9l0.8-3.1c0.1-0.3,0.1-0.5,0.2-0.9c0,0.3,0,0.6,0,1l0.2,3h1l-0.5-5.7H65z M74.9,36.9h1.5V36h-1.5v-1.3h1.8l0.1-0.9h-2.9v5.7h3
			v-1h-1.9V36.9z M115.6,39.4h1.1v-5.7h-1.1V39.4z M128.7,36.1c0,0.4,0,1.1,0.1,1.6c-0.1-0.4-0.3-1-0.6-1.6l-1-2.3h-1.1v5.7h1l0-2.4
			c0-0.5,0-1.1-0.1-1.6c0.1,0.4,0.4,1.2,0.7,1.9l0.9,2.2h1.1v-5.7h-1L128.7,36.1z M132.5,33.7l-1.7,5.7h1.1l0.4-1.4h1.5l0.4,1.4h1.1
			l-1.6-5.7H132.5z M132.5,37.1c0.1-0.4,0.2-0.6,0.3-1.1c0.1-0.4,0.2-1.1,0.2-1.1s0.2,0.7,0.2,1c0.1,0.5,0.3,1.1,0.3,1.1H132.5z
			 M123.2,39.4h1.1v-5.7h-1.1V39.4z M138.6,35.9l-0.6-0.2c-0.4-0.1-0.6-0.3-0.6-0.6c0-0.4,0.3-0.7,0.7-0.7c0.4,0,0.7,0.1,1.2,0.4
			l0.5-0.8c-0.5-0.4-1.1-0.6-1.7-0.6c-1.1,0-1.8,0.7-1.8,1.8c0,0.3,0.1,0.6,0.2,0.9c0.2,0.3,0.5,0.6,1,0.7l0.6,0.2
			c0.5,0.1,0.7,0.4,0.7,0.7c0,0.5-0.3,0.8-0.9,0.8c-0.5,0-0.9-0.2-1.4-0.5L136,39c0.5,0.3,1.2,0.5,1.7,0.5c1.3,0,2.1-0.8,2.1-1.9
			C139.9,36.8,139.4,36.2,138.6,35.9z M100.8,35.3c-0.1,0.3-0.2,0.5-0.3,0.7c-0.1-0.2-0.1-0.4-0.3-0.7l-0.7-1.6h-1.2l1.6,3.3v2.3
			h1.1v-2.3l1.6-3.3h-1.2L100.8,35.3z M107.9,33.7c-0.4,0-0.8,0.1-1.1,0.3c-0.7,0.5-1.2,1.4-1.2,2.7c0,0.8,0.2,1.6,0.6,2.1
			c0.4,0.6,0.9,0.8,1.7,0.8c0.4,0,0.7-0.1,1-0.3c0.7-0.5,1.1-1.4,1.1-2.7C110.2,34.8,109.3,33.7,107.9,33.7z M107.9,38.7
			c-0.2,0-0.4-0.1-0.6-0.2c-0.3-0.2-0.5-0.9-0.5-1.8c0-0.7,0.1-1.2,0.3-1.6c0.1-0.3,0.4-0.5,0.8-0.5c0.5,0,0.8,0.4,0.9,0.7
			c0.1,0.3,0.1,0.7,0.1,1.3C109,38,108.7,38.7,107.9,38.7z M94.2,35.9l-0.6-0.2c-0.4-0.1-0.6-0.3-0.6-0.6c0-0.4,0.3-0.7,0.7-0.7
			c0.4,0,0.7,0.1,1.2,0.4l0.5-0.8c-0.5-0.4-1.1-0.6-1.7-0.6c-1.1,0-1.8,0.7-1.8,1.8c0,0.3,0.1,0.6,0.2,0.9c0.2,0.3,0.5,0.6,1,0.7
			l0.6,0.2c0.5,0.1,0.7,0.4,0.7,0.7c0,0.5-0.3,0.8-0.9,0.8c-0.5,0-0.9-0.2-1.4-0.5L91.6,39c0.5,0.3,1.2,0.5,1.7,0.5
			c1.3,0,2.1-0.8,2.1-1.9C95.5,36.8,95,36.2,94.2,35.9z M120.6,38.7c-0.4,0-0.8-0.2-1-0.6c-0.2-0.3-0.2-0.7-0.2-1.5
			c0-0.7,0.1-1.1,0.3-1.5c0.2-0.3,0.5-0.5,0.9-0.5c0.3,0,0.6,0.1,0.8,0.3l0.5-0.8c-0.3-0.3-0.8-0.5-1.3-0.5c-0.8,0-1.6,0.5-2,1.3
			c-0.2,0.5-0.3,1.1-0.3,1.8c0,0.8,0.2,1.5,0.6,2c0.4,0.5,1,0.8,1.7,0.8c0.6,0,1-0.2,1.4-0.5l-0.5-0.7
			C121.1,38.6,120.9,38.7,120.6,38.7z M111.6,39.4h1v-2.5h1.3V36h-1.3v-1.3h1.6l0.1-0.9h-2.8V39.4z"/>
	</g>
</g>
</svg>
