<?xml version="1.0" standalone="no"?>
<!DOCTYPE svg PUBLIC "-//W3C//DTD SVG 1.1//EN" "http://www.w3.org/Graphics/SVG/1.1/DTD/svg11.dtd" >
<svg xmlns="http://www.w3.org/2000/svg">
<metadata>Generated by IcoMoon</metadata>
<defs>
<font id="icomoon" horiz-adv-x="1024">
<font-face units-per-em="1024" ascent="960" descent="-64" />
<missing-glyph horiz-adv-x="1024" />
<glyph unicode="&#x20;" horiz-adv-x="512" d="" />
<glyph unicode="&#xe900;" glyph-name="arrow-left" d="M826.368 448c0 32.768-12.8 64-36.352 87.040v0l-381.952 381.952c-23.040 23.040-54.272 35.84-87.040 36.352v0c0 0 0 0 0 0s0 0 0 0c-32.768 0-64-12.8-87.040-36.352v0c-23.040-23.040-35.84-54.272-35.84-87.040v-433.664l113.664-113.664v547.84c0 3.072 1.536 5.632 2.56 6.656s3.584 2.56 6.656 2.56c1.536 0 4.096-0.512 6.656-2.56l382.464-382.464c2.048-2.048 2.56-4.608 2.56-6.656 0-1.536-0.512-4.096-2.56-6.656l-382.464-381.952c-2.048-2.048-4.608-2.56-6.656-2.56-5.12 0-9.216 4.096-9.216 9.728v101.888l-113.664 113.664v-215.552c0-33.792 13.824-64.512 35.84-87.040v0c23.040-23.552 54.272-36.352 87.040-36.352 0 0 0 0 0 0s0 0 0 0v0c32.768 0 64 12.8 87.040 36.352l381.952 381.952c23.552 22.528 36.352 53.248 36.352 86.528 0 0 0 0 0 0s0 0 0 0z" />
<glyph unicode="&#xe901;" glyph-name="arrow-right" d="M197.632 448c0 32.768 12.8 64 36.352 87.040v0l381.952 381.952c23.040 23.040 54.272 35.84 87.040 36.352v0c0 0 0 0 0 0s0 0 0 0c32.768 0 64-12.8 87.040-36.352v0c23.040-23.040 35.84-54.272 35.84-87.040v-547.84l-113.664 113.664v434.176c0 3.072-1.536 5.632-2.56 6.656s-3.584 2.56-6.656 2.56c-1.536 0-4.096-0.512-6.656-2.56l-381.952-381.952c-2.048-2.048-2.56-4.608-2.56-6.656 0-1.536 0.512-4.096 2.56-6.656l382.464-382.464c2.048-2.048 4.608-2.56 6.656-2.56 5.12 0 9.216 4.096 9.216 9.728v215.552l113.664-113.664v-101.888c0-33.792-13.824-64.512-35.84-87.040v0c-23.040-23.552-54.272-36.352-87.040-36.352 0 0 0 0 0 0s0 0 0 0v0c-32.768 0-64 12.8-87.040 36.352l-382.464 381.952c-23.552 23.040-36.352 53.76-36.352 87.040 0 0 0 0 0 0s0 0 0 0z" />
<glyph unicode="&#xe902;" glyph-name="blog" d="M615.936 335.36c-1.024 47.104-18.944 86.528-54.272 118.272-32.768 29.184-71.68 39.936-114.176 39.936-79.872 0-159.744 0-239.104 0-25.6 0-51.2 0-76.288-0.512-3.072 0-6.656 1.024-8.192-1.536-2.048-3.584 2.56-5.632 4.608-8.192 27.136-27.648 55.296-54.784 81.92-82.432 9.216-9.728 18.944-12.8 32.256-12.8 71.168 0.512 142.336 0.512 214.016 0 31.232 0 54.784-22.016 55.296-51.712 0.512-49.664 0-98.816 0-148.48 0-15.36-6.144-27.648-17.408-37.888-12.8-11.264-27.648-14.848-44.032-14.848-89.6 0-179.712 0-269.312 0-5.632 0-11.776 0.512-17.408 1.536-26.624 4.608-44.544 25.6-45.056 52.736-0.512 99.328-0.512 198.656-0.512 297.984 0 64 0 128 0.512 191.488 0 9.728-3.072 15.872-11.264 20.992-27.648 18.432-54.784 37.376-82.432 56.32-3.072 2.048-6.144 6.144-9.728 4.608-4.608-2.048-2.56-7.168-2.56-11.264 0-94.208 0-188.416 0-282.624 0-91.648 0-183.296 0-274.944 0-90.624 70.144-160.768 160.768-161.28 94.208 0 188.416 0 282.624 0 89.088 0 159.232 68.608 160.768 158.208 0 48.64 0 97.792-1.024 146.432zM64.512 632.832c-10.24 0-18.944 8.192-19.456 18.432-0.512 10.752 8.192 19.968 18.944 19.968 10.752 0.512 18.944-7.68 18.944-18.432 0.512-11.776-7.168-19.968-18.432-19.968zM942.080 865.28h-329.728c-38.912 0-70.144-31.744-70.144-70.144v-226.816c0-38.912 31.232-70.144 70.144-70.144h56.832v-121.856l143.872 120.832h129.024c38.912 0 70.144 31.744 70.144 70.144v227.328c0 38.912-31.232 70.656-70.144 70.656zM672.256 584.704h-45.056c-7.68 0-14.336 6.144-14.336 14.336v20.48c0 7.68 6.144 14.336 14.336 14.336h293.888c7.68 0 14.336-6.144 14.336-14.336v-20.48c0-7.68-6.144-14.336-14.336-14.336h-248.832zM672.256 735.232h-45.056c-7.68 0-14.336 6.144-14.336 14.336v20.48c0 7.68 6.144 14.336 14.336 14.336h293.888c7.68 0 14.336-6.144 14.336-14.336v-20.48c0-7.68-6.144-14.336-14.336-14.336h-248.832z" />
<glyph unicode="&#xe903;" glyph-name="builds" d="M395.776 538.112v76.288c0 22.016-17.92 39.936-39.936 39.936h-39.424c-22.016 0-39.936-17.92-39.936-39.936v-76.288h119.296zM571.392 538.112v76.288c0 22.016-17.92 39.936-39.936 39.936h-39.424c-22.016 0-39.936-17.92-39.936-39.936v-76.288h119.296zM747.52 538.112v76.288c0 22.016-17.92 39.936-39.936 39.936h-39.424c-22.016 0-39.936-17.92-39.936-39.936v-76.288h119.296zM395.776 361.472v76.288c0 22.016-17.92 39.936-39.936 39.936h-39.424c-22.016 0-39.936-17.92-39.936-39.936v-76.288h119.296zM571.392 361.472v76.288c0 22.016-17.92 39.936-39.936 39.936h-39.424c-22.016 0-39.936-17.92-39.936-39.936v-76.288h119.296zM747.52 361.472v76.288c0 22.016-17.92 39.936-39.936 39.936h-39.424c-22.016 0-39.936-17.92-39.936-39.936v-76.288h119.296zM395.776 183.808v76.288c0 22.016-17.92 39.936-39.936 39.936h-39.424c-22.016 0-39.936-17.92-39.936-39.936v-76.288h119.296zM628.224-50.688v134.656c0 22.016-17.92 39.936-39.936 39.936h-153.088c-22.016 0-39.936-17.92-39.936-39.936v-134.656h232.96zM571.392 183.808v76.288c0 22.016-17.92 39.936-39.936 39.936h-39.424c-22.016 0-39.936-17.92-39.936-39.936v-76.288h119.296zM747.52 183.808v76.288c0 22.016-17.92 39.936-39.936 39.936h-39.424c-22.016 0-39.936-17.92-39.936-39.936v-76.288h119.296zM600.064 743.936c-15.36 0-27.648 12.288-27.648 27.648v67.584c0 7.168 3.072 14.336 8.192 19.968l32.256 32.256h-201.728l32.256-32.256c5.12-5.12 8.192-12.288 8.192-19.968v-67.584c0-15.36-12.288-27.648-27.648-27.648s-27.648 12.288-27.648 27.648v55.808l-46.080 46.080c-5.12 5.12-8.192 12.288-8.192 19.968 0 29.696 24.064 53.248 53.248 53.248h233.984c29.696 0 53.248-24.064 53.248-53.248 0-7.168-3.072-14.336-8.192-19.968l-46.080-46.080v-55.808c0-15.36-12.8-27.648-28.16-27.648zM863.232-50.688h-702.464v700.928c0 66.56 54.272 120.832 120.832 120.832h461.312c66.56 0 120.832-54.272 120.832-120.832v-700.928zM216.064 5.12h591.36v645.12c0 35.84-29.184 65.024-65.024 65.024h-461.312c-35.84 0-65.024-29.184-65.024-65.024v-645.12z" />
<glyph unicode="&#xe904;" glyph-name="email" d="M126.976 8.192c-63.488 0-115.2 51.712-115.2 115.2v91.648c0 0.512 0 1.024 0.512 1.536v295.936c0 2.048 1.024 4.096 3.072 4.608 0.512 0.512 1.536 0.512 2.048 0.512 1.536 0 2.56-0.512 3.584-1.536l57.344-57.856c1.024-1.024 1.536-2.048 1.536-3.584v-328.704c0-0.512 0-1.536-0.512-2.048v-0.512c0-25.6 20.992-47.104 47.104-47.104h770.56c26.112 0 47.104 20.992 47.104 47.104v0.512c0 0.512-0.512 1.024-0.512 1.536v329.216c0 1.536 0.512 2.56 1.536 3.584l58.368 57.856c1.024 1.024 2.048 1.536 3.584 1.536 0.512 0 1.536 0 2.048-0.512 2.048-1.024 3.072-2.56 3.072-4.608v-295.424c0-0.512 0.512-1.024 0.512-1.536v-91.648c0-63.488-51.712-115.2-115.2-115.2h-770.56zM1007.104 512.512v-296.96h0.512v-91.648c0-60.928-49.152-110.080-110.080-110.080h-770.56c-60.928 0-110.080 49.152-110.080 110.080v91.648h0.512v296.96l57.856-57.856v-328.704h-0.512v-2.048c0-28.672 23.552-52.224 52.224-52.224h770.56c28.672 0 52.224 23.552 52.224 52.224v2.048h-0.512v328.704l57.856 57.856zM16.896 522.752c-1.536 0-2.56 0-4.096-1.024-3.584-1.536-6.144-5.12-6.144-9.216v-294.4c0-1.024-0.512-1.536-0.512-2.56v-91.648c0-66.56 53.76-120.32 120.32-120.32h770.56c66.56 0 120.32 53.76 120.32 120.32v91.648c0 1.024 0 1.536-0.512 2.56v294.4c0 4.096-2.56 7.68-6.144 9.216-1.024 0.512-2.56 1.024-4.096 1.024-2.56 0-5.12-1.024-7.168-3.072l-57.856-57.856c-2.048-2.048-3.072-4.608-3.072-7.168v-328.704c0-1.024 0-2.048 0.512-2.56-0.512-22.528-18.944-41.472-41.984-41.472h-770.048c-23.040 0-41.472 18.432-41.984 41.472 0 1.024 0.512 1.536 0.512 2.56v328.704c0 2.56-1.024 5.12-3.072 7.168l-58.368 57.856c-1.536 2.048-4.608 3.072-7.168 3.072v0zM512 182.784c-1.536 0-2.56 0.512-3.584 1.536l-495.616 495.104c-1.024 1.024-1.536 2.56-1.536 3.584 0 0 0 31.744 0 31.744 0 0.512 0 0.512 0 1.024v56.32c0 63.488 51.712 115.2 115.2 115.2h770.56c63.488 0 115.2-51.712 115.2-115.2v-56.32c0-0.512 0-0.512 0-1.024v-31.232c0-0.512 0-1.024 0-1.536 0-1.024-0.512-2.048-1.536-2.56l-495.104-495.104c-1.024-1.024-2.048-1.536-3.584-1.536zM512 275.968l432.128 432.128v16.384c0 0 0 0.512 0 0.512v47.104c0 26.112-20.992 47.104-47.104 47.104h-770.048c-26.112 0-47.104-20.992-47.104-47.104v-47.104c0 0 0-0.512 0-0.512v-16.384l432.128-432.128zM897.024 882.688c60.928 0 110.080-49.152 110.080-110.080v-89.088l-495.104-495.616-495.104 495.616v88.576c0 60.928 49.152 110.080 110.080 110.080h770.048zM512 268.8l437.248 437.248v66.048c0 28.672-23.552 52.224-52.224 52.224h-770.048c-28.672 0-52.224-23.552-52.224-52.224v-66.048l437.248-437.248zM897.024 892.928h-770.048c-66.56 0-120.32-53.76-120.32-120.32v-56.32c0-0.512 0-1.024 0-1.024v-31.744c0-1.024 0-1.536 0.512-2.56 0.512-2.048 1.536-3.584 2.56-5.12l495.104-495.104c2.048-2.048 4.608-3.072 7.168-3.072s5.12 1.024 7.168 3.072l495.104 495.104c2.048 2.048 3.072 4.608 3.072 7.168 0 0 0 0 0 0v31.232c0 0.512 0 1.024 0 1.024v56.32c0 67.072-53.76 121.344-120.32 121.344v0zM84.992 723.968c0 0.512 0 0.512 0 1.024v47.104c0 23.040 18.944 41.984 41.984 41.984h770.048c23.040 0 41.984-18.944 41.984-41.984v-47.104c0-0.512 0-0.512 0-1.024v-13.824l-427.008-427.008-427.008 427.008v13.824z" />
<glyph unicode="&#xe905;" glyph-name="logo" d="M615.424 323.584c-1.024 47.104-18.944 86.528-54.784 118.272-32.768 29.184-71.68 39.936-114.688 39.936-79.872 0-159.744 0-239.616 0-25.6 0-51.2 0-76.8-0.512-3.072 0-6.656 1.024-8.192-1.536-2.048-3.584 2.56-5.632 4.608-8.192 27.136-27.648 55.296-54.784 81.92-82.944 9.216-9.728 18.944-12.8 32.256-12.8 71.68 0.512 142.848 0.512 214.528 0 31.232 0 54.784-22.016 55.296-51.712 0.512-49.664 0-99.328 0-148.48 0-15.36-6.144-27.648-17.408-37.888-12.8-11.264-27.648-14.848-44.032-14.848-90.112 0-179.712 0-269.824 0-6.144 0-11.776 0.512-17.408 1.536-26.624 4.608-45.056 25.6-45.056 52.736-0.512 99.328-0.512 199.168-0.512 298.496 0 64 0 128 0.512 192 0 9.728-3.072 15.872-11.264 20.992-28.16 18.432-55.296 37.376-82.944 56.32-3.072 2.048-6.144 6.144-9.728 4.608-4.608-2.048-2.048-7.168-2.048-11.264 0-94.208 0-188.928 0-283.136 0-91.648 0-183.296 0-275.456 0-91.136 70.144-161.28 161.28-161.28 94.208 0 188.928 0 283.136 0 89.088 0 159.232 68.608 161.28 158.208 0 49.152 0.512 97.792-0.512 146.944zM62.464 621.056c-10.24 0-19.456 8.192-19.456 18.432-0.512 10.752 8.192 19.968 18.944 20.48s18.944-7.68 19.456-18.432c0.512-11.776-7.168-19.968-18.944-20.48zM982.528 380.416c7.168 0.512 14.848 0.512 22.016 1.536 7.168 0.512 10.24 4.608 9.728 11.776-1.536 17.408-1.536 34.816-4.096 51.712-31.232 194.048-138.752 327.68-320.512 400.896-50.688 20.48-103.936 29.184-158.208 30.72-9.728 0-13.312-3.584-13.312-12.8 0.512-12.8 0.512-25.088 0-37.888-0.512-9.728 4.096-13.824 13.312-14.848 15.872-1.024 31.744-2.048 47.616-4.096 85.504-12.8 160.768-47.104 224.768-105.472 86.016-77.312 134.144-173.568 143.36-288.768 2.56-32.256 2.048-32.256 35.328-32.768zM849.408 380.928c7.168 0 13.824 0 20.992 0 8.704-0.512 12.288 4.096 11.776 12.288-1.024 11.264-1.024 22.016-3.072 33.28-21.504 139.264-97.28 237.056-226.816 292.864-38.4 16.384-78.848 24.576-120.832 25.6-9.728 0-13.824-3.584-13.312-12.8 0.512-8.704 0-17.92 0-26.624 0-24.576 0-24.576 24.576-26.624 82.432-7.168 150.528-43.52 203.776-106.496 43.008-51.2 65.536-111.104 69.12-177.664 0.512-9.728 4.096-13.312 13.312-13.312 7.168-0.512 13.824-0.512 20.48-0.512zM518.144 580.608v0c0-6.656 0.512-13.312 0-19.968-0.512-9.216 3.072-12.8 12.8-13.824 85.504-8.192 147.456-75.264 152.064-154.624 0.512-6.656 3.072-10.752 9.728-10.752 14.848 0 29.696 0.512 44.544 0.512 9.216 0 12.288 5.12 11.264 13.824-1.536 15.872-4.096 31.744-8.192 47.104-25.088 94.72-113.152 165.376-211.456 169.984-7.68 0.512-11.264-2.56-11.264-9.728 0.512-7.68 0.512-15.36 0.512-22.528z" />
<glyph unicode="&#xe906;" glyph-name="phone" d="M719.872 875.008c42.496 0 77.312-34.816 77.312-77.312v-699.904c0-42.496-34.816-77.312-77.312-77.312h-415.744c-42.496 0-77.312 34.816-77.312 77.312v700.416c0 42.496 34.304 77.312 77.312 77.312h415.744zM719.872 950.784h-415.744c-84.48 0-152.576-68.608-152.576-152.576v-699.904c0-84.48 68.608-152.576 152.576-152.576h416.256c84.48 0 152.576 68.608 152.576 152.576v699.904c0 83.968-68.608 152.576-153.088 152.576v0zM724.992 805.888h-425.984v-641.536h425.984v641.536zM512 139.264c-22.528 0-40.96-18.432-40.96-40.96s18.432-41.472 40.96-41.472c22.528 0 41.472 18.432 41.472 41.472-0.512 22.528-18.944 40.96-41.472 40.96z" />
<glyph unicode="&#xe907;" glyph-name="questions" d="M782.336 895.488c68.096 0 123.392-55.296 123.392-123.392v-458.24c0-68.096-55.296-123.392-123.392-123.392h-196.096l-114.688-115.2v115.2h-229.888c-68.096 0-123.392 55.296-123.392 123.392v458.24c0 68.096 55.296 123.392 123.392 123.392h540.672zM782.336 948.224h-540.672c-97.28 0-176.128-78.848-176.128-176.128v-458.24c0-97.28 78.848-176.128 176.128-176.128h177.152v-189.952l189.44 189.44h174.080c97.28 0 176.128 78.848 176.128 176.128v458.752c0 97.28-78.848 176.128-176.128 176.128v0zM555.008 813.056h-195.584l75.776-75.264h110.080c20.992 0 37.888-16.896 37.888-37.888v-38.912c0-20.992-16.384-37.888-36.864-37.888-62.464 0-112.64-51.2-112.64-113.664v-101.888h85.504v101.888c0 20.992 16.384 37.888 36.864 37.888 62.464 0 112.64 51.2 112.64 113.664v38.912c0 62.464-51.2 113.152-113.664 113.152zM453.632 758.784c-9.728 0-17.92 7.68-17.92 17.92 0 9.728 7.68 17.408 17.92 17.408 9.728 0 17.408-7.68 17.408-17.408s-7.68-17.92-17.408-17.92zM519.68 315.904c0-24.576-19.968-44.544-44.544-44.544v0c-24.576 0-44.544 19.968-44.544 44.544v0c0 24.576 19.968 44.544 44.544 44.544v0c24.576 0 44.544-19.968 44.544-44.544v0z" />
<glyph unicode="&#xe908;" glyph-name="who" d="M467.456 484.864h90.624c53.76 0 97.28 43.52 97.28 97.28v94.208c0 53.76-43.52 97.28-97.28 97.28h-90.624c-53.76 0-97.28-43.52-97.28-97.28v-94.208c0-53.76 43.52-97.28 97.28-97.28zM443.392 669.696c0 17.92 14.336 32.256 32.256 32.256h74.24c17.92 0 32.256-14.336 32.256-32.256v-82.432c0-17.92-14.336-32.256-32.256-32.256h-74.24c-17.92 0-32.256 14.336-32.256 32.256v82.432zM512.512 408.576l-34.304-25.6v-203.264h67.584v206.336zM799.744 325.12c0 75.776-61.44 157.184-137.216 157.184h-29.696l-70.656-70.656h77.824c49.152 0 89.088-37.376 89.088-86.528v-145.408h70.656v145.408zM780.288 480.256h56.832c33.792 0 61.44 27.648 61.44 61.44v59.392c0 33.792-27.648 61.44-61.44 61.44h-56.832c-33.792 0-61.44-27.648-61.44-61.44v-59.392c0.512-34.304 27.648-61.44 61.44-61.44zM765.44 596.48c0 11.264 9.216 20.48 20.48 20.48h46.592c11.264 0 20.48-9.216 20.48-20.48v-51.712c0-11.264-9.216-20.48-20.48-20.48h-46.592c-11.264 0-20.48 9.216-20.48 20.48v51.712zM989.696 379.392c0 47.616-38.912 98.816-86.528 98.816h-18.944l-44.544-44.544h48.64c31.232 0 56.32-23.552 56.32-54.784v-192h44.544v192.512zM304.128 541.184v59.392c0 33.792-27.648 61.44-61.44 61.44h-56.832c-33.792 0-61.44-27.648-61.44-61.44v-59.904c0-33.792 27.648-61.44 61.44-61.44h56.832c33.792 1.024 61.44 28.16 61.44 61.952zM258.048 544.768c0-11.264-9.216-20.48-20.48-20.48h-46.592c-11.264 0-20.48 9.216-20.48 20.48v51.712c0 11.264 9.216 20.48 20.48 20.48h46.592c11.264 0 20.48-9.216 20.48-20.48v-51.712zM33.28 379.392c0 47.616 38.912 98.816 86.528 98.816h18.944l44.544-44.544h-48.64c-31.232 0-56.32-23.552-56.32-54.784v-199.68h-45.056v200.192zM224.256 325.12c0 75.776 61.44 157.184 137.216 157.184h29.696l70.656-70.656h-77.824c-49.152 0-89.088-37.376-89.088-86.528v-145.408h-70.656v145.408zM6.144 194.56h1011.2v-71.68h-1011.2v71.68z" />
</font></defs></svg>